[
  {
    "outputFileName": "wwwroot/css/site.min.css",
    "inputFiles": [
      //"wwwroot/assets/css/main.css"
    ],
    "minify": {
      "enabled": true,
      "renameLocals": false
    },
    "sourceMap": false
  },
  {
    "outputFileName": "wwwroot/js/site.min.js",
    "inputFiles": [
      "wwwroot/js/site.js"
    ],
    "minify": {
      "enabled": true,
      "renameLocals": false
    },
    "sourceMap": false
  },
  {
    "outputFileName": "wwwroot/js/sitesignalr.min.js",
    "inputFiles": [
      "wwwroot/js/sitesignalr.js"
    ],
    "minify": {
      "enabled": true,
      "renameLocals": false
    },
    "sourceMap": false
  },
  {
    "outputFileName": "wwwroot/games/duckhunt/js/duckhunt.min.js",
    "inputFiles": [
      "GamesJs/Duckhunt/screenfull.js",
      "GamesJs/Duckhunt/ctl_utils.js",
      "GamesJs/Duckhunt/sprite_lib.js",
      "GamesJs/Duckhunt/settings.js",
      "GamesJs/Duckhunt/CDuckSettings.js",
      "GamesJs/Duckhunt/CPreloader.js",
      "GamesJs/Duckhunt/CMain.js",
      "GamesJs/Duckhunt/CJoypad.js",
      "GamesJs/Duckhunt/CTextButton.js",
      "GamesJs/Duckhunt/CToggle.js",
      "GamesJs/Duckhunt/CGfxButton.js",
      "GamesJs/Duckhunt/CMenu.js",
      "GamesJs/Duckhunt/CGame.js",
      "GamesJs/Duckhunt/CLang.js",
      "GamesJs/Duckhunt/CInterface.js",
      "GamesJs/Duckhunt/CHelpPanel.js",
      "GamesJs/Duckhunt/CEndPanel.js",
      "GamesJs/Duckhunt/CDuck.js",
      "GamesJs/Duckhunt/CScope.js",
      "GamesJs/Duckhunt/CScoreText.js",
      "GamesJs/Duckhunt/CCreditsPanel.js",
      "wwwroot/js/hmac.js",
      "GamesJs/Duckhunt/app.js"
    ],
    "minify": {
      "enabled": true,
      "renameLocals": false
    },
    "sourceMap": false
  }
]